[[92,151,102],
[63,129,219],
[86,240,142],
[30,79,124],
[40,199,105],
[88,159,233],
[121,235,153],
[54,109,165],
[53,244,181],
[100,144,198],
[77,193,114],
[59,167,229],
[128,244,182],
[44,126,169],
[70,207,151],
[149,187,239],
[28,87,43],
[135,206,254],
[51,166,104],
[114,186,232],
[40,135,83],
[84,159,204],
[125,217,160],
[29,164,204],
[54,112,66],
[78,209,248],
[26,100,71],
[71,250,244],
[48,119,89],
[78,226,244],
[74,145,113],
[81,183,216],
[150,213,163],
[37,136,159],
[72,234,197],
[72,163,186],
[103,249,225],
[33,126,112],
[117,235,235],
[29,152,121],
[111,208,231],
[78,190,148],
[49,171,178],
[155,235,209],
[80,162,143],
[116,229,197],
[51,212,209],
[114,193,168],
[111,210,205],
[59,190,170]]