[[23,39,27],
[218,228,210],
[31,20,15],
[177,211,217],
[48,31,25],
[210,186,175],
[27,58,63],
[157,179,166],
[71,53,42],
[115,148,155],
[83,76,61],
[144,150,129],
[60,77,63],
[159,132,130],
[63,100,110],
[116,88,78],
[87,111,106],
[132,125,108],
[96,111,90],
[107,100,84]]